#FIG 3.1
Portrait
Center
Inches
1200 2
1 3 0 2 -1 7 0 0 -1 0.0000000 1 0.000 3000 1800 150 150 3000 1800 3000 1950
1 3 0 2 -1 7 0 0 -1 0.0000000 1 0.000 5400 1800 150 150 5400 1800 5400 1950
1 3 0 2 -1 7 0 0 -1 0.0000000 1 0.000 6600 1800 168 168 6600 1800 6675 1950
1 3 0 2 -1 7 0 0 -1 0.0000000 1 0.000 7800 1800 150 150 7800 1800 7800 1950
1 3 0 2 -1 7 0 0 -1 0.0000000 1 0.000 9000 600 150 150 9000 600 9000 750
1 3 0 2 -1 7 0 0 0 0.0000000 1 0.000 3000 1800 168 168 3000 1800 3075 1950
1 3 0 2 -1 7 0 0 0 0.0000000 1 0.000 6600 1800 150 150 6600 1800 6600 1950
1 3 0 2 -1 7 0 0 0 0.0000000 1 0.000 9000 600 150 150 9000 600 9000 750
1 3 0 2 -1 7 0 0 0 0.0000000 1 0.000 7800 1800 150 150 7800 1800 7800 1950
1 3 0 2 -1 4 0 0 20 0.0000000 1 0.000 5400 600 150 150 5400 600 5400 750
1 3 0 2 -1 4 0 0 20 0.0000000 1 0.000 6600 600 150 150 6600 600 6600 750
1 3 0 2 -1 4 0 0 20 0.0000000 1 0.000 7800 600 150 150 7800 600 7800 750
1 3 0 2 -1 4 0 0 20 0.0000000 1 0.000 9000 1800 168 168 9000 1800 9075 1950
1 3 0 2 -1 4 0 0 20 0.0000000 1 0.000 4200 1800 150 150 4200 1800 4200 1950
1 3 0 2 -1 4 0 0 20 0.0000000 1 0.000 4200 600 150 150 4200 600 4200 750
1 3 0 2 -1 4 0 0 20 0.0000000 1 0.000 3000 600 150 150 3000 600 3000 750
1 3 0 2 -1 4 0 0 20 0.0000000 1 0.000 1800 600 150 150 1800 600 1800 750
1 3 0 2 -1 4 0 0 20 0.0000000 1 0.000 600 600 150 150 600 600 600 750
1 3 0 2 -1 4 0 0 20 0.0000000 1 0.000 600 1800 150 150 600 1800 600 1950
1 3 0 2 -1 4 0 0 20 0.0000000 1 0.000 1800 1800 150 150 1800 1800 1800 1950
1 3 0 2 -1 0 0 0 20 0.0000000 1 0.000 5400 1800 150 150 5400 1800 5550 1950
2 1 0 2 -1 7 0 0 -1 0.000 0 0 -1 0 0 3
	 7950 600 9000 600 9000 1650
2 1 0 2 -1 7 0 0 -1 0.000 0 0 -1 0 0 3
	 7800 750 7800 1800 8850 1800
2 1 0 2 -1 7 0 0 -1 0.000 0 0 -1 0 0 2
	 5550 600 6450 600
2 1 0 2 -1 7 0 0 -1 0.000 0 0 -1 0 0 2
	 3150 600 4050 600
2 1 0 2 -1 7 0 0 -1 0.000 0 0 -1 0 0 2
	 4200 750 4200 1650
2 1 0 2 -1 7 0 0 -1 0.000 0 0 -1 0 0 2
	 3000 1800 4050 1800
2 1 0 2 -1 7 0 0 -1 0.000 0 0 -1 0 0 2
	 3000 750 3000 1800
2 1 0 2 -1 7 0 0 -1 0.000 0 0 -1 0 0 2
	 750 600 1650 600
2 1 0 2 -1 7 0 0 -1 0.000 0 0 -1 0 0 2
	 1800 750 1800 1650
2 1 0 2 -1 7 0 0 -1 0.000 0 0 -1 0 0 2
	 600 750 600 1650
2 1 0 2 -1 7 0 0 -1 0.000 0 0 -1 0 0 2
	 750 1800 1650 1800
2 1 0 2 -1 7 10 0 -1 0.000 0 0 -1 0 0 4
	 6600 750 6600 1800 5400 1800 5400 750
2 2 0 1 -1 7 0 0 -1 0.000 0 0 0 0 0 5
	 7650 2400 9150 2400 9150 3300 7650 3300 7650 2400
2 2 0 1 -1 7 0 0 -1 0.000 0 0 0 0 0 5
	 5250 2400 6750 2400 6750 3300 5250 3300 5250 2400
2 2 0 1 -1 7 0 0 -1 0.000 0 0 0 0 0 5
	 2850 2400 4350 2400 4350 3900 2850 3900 2850 2400
2 2 0 1 -1 7 0 0 -1 0.000 0 0 0 0 0 5
	 450 2400 1950 2400 1950 3900 450 3900 450 2400
4 1 1 0 0 2 30 0.0000000 2 300 1155 8400 3000 0 1 0 1\001
4 1 13 0 0 2 30 0.0000000 2 300 1155 3600 3000 0 0 0 1\001
4 1 13 0 0 2 30 0.0000000 2 300 1155 6000 3000 0 0 1 1\001
4 1 -1 0 0 0 24 0.0000000 4 255 990 1200 3600 1 1 1 1\001
4 1 1 0 0 2 30 0.0000000 2 300 1155 1200 3000 0 0 0 0\001
4 1 0 0 0 0 24 0.0000000 2 255 990 3600 3600 0 1 1 1\001
