venn05/
venn05/nonsymm7.html
venn05/VennMinEJC.html
venn05/VennSymmNonpolarEJC.html
venn05/VennMin7.html
venn05/Adelaide.html
venn05/VennBorromean.html
venn05/VennEJCofficial.html
venn05/VennIrreducible.html
venn05/VennOpenEJC.html
venn05/VennOtherEJC.html
venn05/gifs/
venn05/gifs/sector2sm.gif
venn05/gifs/VictoriaRain.gif
venn05/gifs/venn12c.gif
venn05/gifs/GKSsectorbig.gif
venn05/gifs/n2c.gif
venn05/gifs/Gray5graph.gif
venn05/gifs/n1.gif
venn05/gifs/PalmerstonGreen.gif
venn05/gifs/m6.gif
venn05/gifs/anim-n.gif
venn05/gifs/c-venn-11.gif
venn05/gifs/ph11circBWbig.gif
venn05/gifs/m4c.gif
venn05/gifs/sector1sm.gif
venn05/gifs/sector9big.gif
venn05/gifs/scan-ed4.gif
venn05/gifs/CarrollTriangleBigRed.gif
venn05/gifs/sector5_150.gif
venn05/gifs/GoldBeadNeckLattice7.gif
venn05/gifs/BW-venn3c-11-12-13.gif
venn05/gifs/ham-minvertex7.gif
venn05/gifs/venn3c-03-04.gif
venn05/gifs/venn3c-07-08-09-10.gif
venn05/gifs/GrunSymm7color.old.gif
venn05/gifs/VicRed10.gif
venn05/gifs/m16c.gif
venn05/gifs/AdRep.gif
venn05/gifs/sector8sm.gif
venn05/gifs/GrunSymm7color.gif
venn05/gifs/BW-venn3c-03-04.gif
venn05/gifs/scan-venn4.gif
venn05/gifs/littleJohnVenn.gif
venn05/gifs/anim-nc.gif
venn05/gifs/sector1bwSm.gif
venn05/gifs/n2.gif
venn05/gifs/venn13c.gif
venn05/gifs/sector5sm.gif
venn05/gifs/Victoria.gif
venn05/gifs/ManawatuColor.gif
venn05/gifs/forFrank.jpg
venn05/gifs/m12.gif
venn05/gifs/p1c.gif
venn05/gifs/HamiltonGreen.gif
venn05/gifs/Hamilton.gif
venn05/gifs/sector1_300.gif
venn05/gifs/linesAdelaide
venn05/gifs/sector10sm.gif
venn05/gifs/GrunTest.gif
venn05/gifs/m14.gif
venn05/gifs/5-VD-triangles.gif
venn05/gifs/n4c.gif
venn05/gifs/min7single20.gif
venn05/gifs/V3a.gif.orig
venn05/gifs/m10.gif
venn05/gifs/rot3c.gif
venn05/gifs/m9.gif
venn05/gifs/ManawatuRain.gif
venn05/gifs/venn6color.gif
venn05/gifs/c-venn-15.gif
venn05/gifs/m15c.gif
venn05/gifs/V3aa.gif
venn05/gifs/CO-venn3c-11-12-13.gif
venn05/gifs/ManawatuGreen.gif
venn05/gifs/HamiltonColor.gif
venn05/gifs/sector7big.gif
venn05/gifs/p1.gif
venn05/gifs/venn11c.gif
venn05/gifs/5-VD-ellipses-colour.gif
venn05/gifs/m17.gif
venn05/gifs/m3c.gif
venn05/gifs/brunnian3.gif
venn05/gifs/VictoriaWild.gif
venn05/gifs/VennOpen
venn05/gifs/c-venn-47.gif
venn05/gifs/7set_1o.gif
venn05/gifs/Rings.gif
venn05/gifs/gifs
venn05/gifs/betteMin4.gif
venn05/gifs/VictoriaKnot.jpg
venn05/gifs/7pie.gif
venn05/gifs/grunEvenRotate.gif
venn05/gifs/scan-ed1.gif
venn05/gifs/n8.gif
venn05/gifs/m1c.gif
venn05/gifs/EdCol6.gif
venn05/gifs/m7.gif
venn05/gifs/min7single.gif
venn05/gifs/sector1.gif
venn05/gifs/venn26c.gif
venn05/gifs/sector1latticeSm.gif
venn05/gifs/7set_1.gif
venn05/gifs/ph11circAllColor.gif
venn05/gifs/GKSsector.gif
venn05/gifs/VictoriaRainHam.gif
venn05/gifs/n5c.gif
venn05/gifs/p6.gif
venn05/gifs/m3.gif
venn05/gifs/VictoriaColor.gif
venn05/gifs/sector1lattice.gif
venn05/gifs/VennStain2.gif
venn05/gifs/grun3fold.gif
venn05/gifs/sector10_150.gif
venn05/gifs/sector1bwBigBip.gif
venn05/gifs/AdelaideIcon.gif
venn05/gifs/p5.gif
venn05/gifs/MasseyGreen.gif
venn05/gifs/ph11sec1.gif
venn05/gifs/m13c.gif
venn05/gifs/sector9_150.gif
venn05/gifs/sector11big.gif
venn05/gifs/sector8_150.gif
venn05/gifs/c-venn-27.gif
venn05/gifs/CarrollTriangleRedClipped.gif
venn05/gifs/ellipsevenn.gif
venn05/gifs/rot4.gif
venn05/gifs/valid_html-wilbur.gif
venn05/gifs/hidden6.gif
venn05/gifs/V3aa.fig.bak
venn05/gifs/ellipse2.gif
venn05/gifs/CarrollTriangleHuge.gif
venn05/gifs/p4c.gif
venn05/gifs/BW-venn3c-07-08-09-10.gif
venn05/gifs/p3c.gif
venn05/gifs/sector3sm.gif
venn05/gifs/7set_1col.gif
venn05/gifs/AdelaideRain.gif
venn05/gifs/sector2big.gif
venn05/gifs/p6c.gif
venn05/gifs/n3c.gif
venn05/gifs/sector4_150.gif
venn05/gifs/Massey.gif
venn05/gifs/m13.gif
venn05/gifs/V3a.gif
venn05/gifs/m12c.gif
venn05/gifs/m14c.gif
venn05/gifs/n6.gif
venn05/gifs/m8.gif
venn05/gifs/shor.gif
venn05/gifs/min5b.gif
venn05/gifs/HamiltonRain.gif
venn05/gifs/m11c.gif
venn05/gifs/7set_7col.gif
venn05/gifs/radual.gif
venn05/gifs/sector3_150.gif
venn05/gifs/m2c.gif
venn05/gifs/NonNeck7color.gif
venn05/gifs/7set_5.gif
venn05/gifs/m4.gif
venn05/gifs/c-venn-19.gif
venn05/gifs/color.gif
venn05/gifs/V3plain.gif
venn05/gifs/scan-ed2.gif
venn05/gifs/smallV3plain.gif
venn05/gifs/Palmerston.gif
venn05/gifs/b_arrow.gif
venn05/gifs/sector10big.gif
venn05/gifs/m2.gif
venn05/gifs/AdelaideColor.gif
venn05/gifs/m15.gif
venn05/gifs/eee.gif
venn05/gifs/index.html
venn05/gifs/p5c.gif
venn05/gifs/sector2_150.gif
venn05/gifs/CO-venn3c-07-08-09-10.gif
venn05/gifs/sector6big.gif
venn05/gifs/7set_7.gif
venn05/gifs/venn20c.gif
venn05/gifs/sector6_150.gif
venn05/gifs/scan-venn3.gif
venn05/gifs/7set_3.gif
venn05/gifs/min7color20.gif
venn05/gifs/n7c.gif
venn05/gifs/ph11circAllColorSm.gif
venn05/gifs/Manawatu.gif
venn05/gifs/min5a.gif
venn05/gifs/rot6c.gif
venn05/gifs/c-venn-42.gif
venn05/gifs/VictoriaGreen.gif
venn05/gifs/m10c.gif
venn05/gifs/c-venn-37.gif
venn05/gifs/sector1latticeBig.gif
venn05/gifs/NonNeck7.gif
venn05/gifs/rot4c.gif
venn05/gifs/rot5c.gif
venn05/gifs/howcirc.gif
venn05/gifs/ph11sec1big.gif
venn05/gifs/linesAdelaide.gif
venn05/gifs/ell7green.gif
venn05/gifs/EdwardsCol6.gif
venn05/gifs/colorBetteMin5.gif
venn05/gifs/m9c.gif
venn05/gifs/Ed5count.gif
venn05/gifs/rot5.gif
venn05/gifs/sector8big.gif
venn05/gifs/anim-rot.gif
venn05/gifs/n7.gif
venn05/gifs/VennStain.gif
venn05/gifs/MabryIce.gif
venn05/gifs/m5c.gif
venn05/gifs/p2.gif
venn05/gifs/sector9sm.gif
venn05/gifs/c-venn-25.gif
venn05/gifs/rot6.gif
venn05/gifs/min7.gif
venn05/gifs/m16.gif
venn05/gifs/MasseyRain.gif
venn05/gifs/V3.gif
venn05/gifs/n6green.gif
venn05/gifs/MasseyColor.gif
venn05/gifs/CarrollTriangle.gif
venn05/gifs/ellipse2ham.gif
venn05/gifs/sector7sm.gif
venn05/gifs/CO-venn3c-01-02.gif
venn05/gifs/sector4sm.gif
venn05/gifs/5-VD-ellipses-labelled.gif
venn05/gifs/CarrollTriColor.gif
venn05/gifs/grunSwizzle.gif
venn05/gifs/VennPaint.gif
venn05/gifs/independent.gif
venn05/gifs/sector1big.gif
venn05/gifs/m6c.gif
venn05/gifs/sector1bwBig.gif
venn05/gifs/rot7c.gif
venn05/gifs/BorRings.gif
venn05/gifs/m7c.gif
venn05/gifs/m1.gif
venn05/gifs/CO-venn3c-03-04.gif
venn05/gifs/m8c.gif
venn05/gifs/sector1latticeOnlySm.gif
venn05/gifs/sector11.gif
venn05/gifs/scan-ed3.gif
venn05/gifs/n5.gif
venn05/gifs/rot3.gif
venn05/gifs/m11.gif
venn05/gifs/separable.gif
venn05/gifs/GrunSymm7.gif
venn05/gifs/7set_3col.gif
venn05/gifs/sector6sm.gif
venn05/gifs/GrunEllipse.gif
venn05/gifs/CarrollTriangleBig.gif
venn05/gifs/betteMin5.gif
venn05/gifs/knot/
venn05/gifs/sector1latticeOnly.gif
venn05/gifs/n3.gif
venn05/gifs/scan-venn1.gif
venn05/gifs/vennAll7.gif
venn05/gifs/GKSentire-smaller.gif
venn05/gifs/n6c.gif
venn05/gifs/7set_2.gif
venn05/gifs/m5.gif
venn05/gifs/VictoriaIcon.gif
venn05/gifs/irreduce.gif
venn05/gifs/c-venn-13.gif
venn05/gifs/c-venn-49.gif
venn05/gifs/sector3big.gif
venn05/gifs/GrunTestColor.gif
venn05/gifs/sector5big.gif
venn05/gifs/p2c.gif
venn05/gifs/test.gif
venn05/gifs/venn3c-11-12-13.gif
venn05/gifs/c-venn--7.gif
venn05/gifs/p4.gif
venn05/gifs/PalmerstonRain.gif
venn05/gifs/VennGraphs.gif
venn05/gifs/venn3c-05-06.gif
venn05/gifs/Ed5gray.gif
venn05/gifs/n4.gif
venn05/gifs/AdelaideEdwards.gif
venn05/gifs/m17c.gif
venn05/gifs/min5c.gif
venn05/gifs/p3.gif
venn05/gifs/rot7.gif
venn05/gifs/valid_html3.2.gif
venn05/gifs/venn6a.gif
venn05/gifs/Adelaide.gif
venn05/gifs/VennExpand.gif
venn05/gifs/PalmerstonColor.gif
venn05/gifs/venn3c-01-02.gif
venn05/gifs/VennGraph.gif
venn05/gifs/sector11sm.gif
venn05/gifs/CO-venn3c-05-06.gif
venn05/gifs/BW-venn3c-01-02.gif
venn05/gifs/sector2_300.gif
venn05/gifs/ph11circBWsm.gif
venn05/gifs/n8c.gif
venn05/gifs/BW-venn3c-05-06.gif
venn05/gifs/n0.gif
venn05/gifs/Ellipse7green.gif
venn05/gifs/sector1_150.gif
venn05/gifs/nonrigid.gif
venn05/gifs/AdelaideGreen.gif
venn05/gifs/sector4big.gif
venn05/gifs/sector1_300wide.gif
venn05/gifs/sector7_150.gif
venn05/gifs/venn21c.gif
venn05/gifs/7set_4.gif
venn05/VennObscure.html
venn05/Min7NonPolar.html
venn05/VennNecklaceEJC.html
venn05/VennChanges.html
venn05/VennEJC.html
venn05/irreduce.html
venn05/VennFAQ.html
venn05/VennWhatEJC.html
venn05/VennAdelaide.html
venn05/copyrighted/
venn05/copyrighted/11-VD-220-onecurve.jpg
venn05/copyrighted/11-dual-1837vert-hamburger.jpg
venn05/copyrighted/11-VD-462-hamsfirst-colour.jpg
venn05/copyrighted/ham-minvertex7.gif
venn05/copyrighted/11-VD-462-hamsfirst-onecurveinterior-colour-large.jpg
venn05/copyrighted/11-VD-1837-dual-colour.jpg
venn05/copyrighted/11-VD-1837-onecurveinterior-colour.jpg
venn05/copyrighted/11-VD-220-dual-colour.jpg
venn05/copyrighted/11-VD-231vert-small-hamburger.jpg
venn05/copyrighted/11-dual-onesector-1837vert-hamburger.jpg
venn05/copyrighted/11-VD-1837vert-onecurve-hamburger-small.png
venn05/copyrighted/11-VD-231-thumb.png
venn05/copyrighted/11-VD-231vert-onecurve-hamburger.png
venn05/copyrighted/11-VD-220-dual-colour-large.jpg
venn05/copyrighted/11-VD-1837-dual-colour-thumb.jpg
venn05/copyrighted/11-VD-462-hamsfirst-onecurve.jpg
venn05/copyrighted/7-VD-minvertex-hamburger.png
venn05/copyrighted/11-VD-1837-onecurve.jpg
venn05/copyrighted/11-VD-1837vert-hamburger.jpg
venn05/copyrighted/11-VD-1837-onecurveinterior-colour-large.jpg
venn05/copyrighted/11-VD-1837-colour-thumb.jpg
venn05/copyrighted/11-VD-1837-colour.jpg
venn05/copyrighted/11-dual-1837vert-hamburger-small.jpg
venn05/copyrighted/11-VD-220-onecurveinterior-colour.jpg
venn05/copyrighted/11-VD-462-hamsfirst-colour-thumb.jpg
venn05/copyrighted/11-VD-462-hamsfirst-dual-colour.jpg
venn05/copyrighted/11-VD-1837-colour-large.jpg
venn05/copyrighted/11-VD-1837vert-hamburger-small.jpg
venn05/copyrighted/11-VD-231vert-hamburger.jpg
venn05/copyrighted/11-dual-onesector-1837vert-hamburger-small.png
venn05/copyrighted/11-VD-231vert-onecurve-small-hamburger.png
venn05/copyrighted/11-VD-220-colour-large.jpg
venn05/copyrighted/11-VD-462-hamsfirst-onecurveinterior-colour.jpg
venn05/copyrighted/11-VD-220-colour-thumb.jpg
venn05/copyrighted/11-VD-1837-dual-colour-large.jpg
venn05/copyrighted/11-VD-220-colour.jpg
venn05/borromean.html
venn05/NonMonotoneEJC.html
venn05/VennAckEJC.html
venn05/VennGray.html
venn05/index.html
venn05/VennKfoldEJC.html
venn05/VennEJCofficial.html.bak
venn05/VennGeneral.html
venn05/VennSymmExamples.html
venn05/Min7Polar.html
venn05/VennMin5.html
venn05/VennGeometricEJC.html
venn05/jpgs/
venn05/jpgs/GKSentire.jpg
venn05/jpgs/forFrank.jpg
venn05/jpgs/viscera-pisces.jpg
venn05/jpgs/venn4-bw.jpg
venn05/jpgs/venn4-tutte.jpg
venn05/jpgs/venn5-tutte.jpg
venn05/VennSymmEJC.html
venn05/VennPoly67EJC.html
venn05/VennTriangleEJC.html
venn05/VennSymmVariants.html
venn05/VennEulerEJC.html
venn05/VennJohnEJC.html
venn05/.htaccess
venn05/VennRefs.html
venn05/VennSeparatingEJC.html
venn05/VennPaintEJC.html
venn05/VennFootEJC.html
venn05/pngs/
venn05/pngs/2vennAB.jpg
venn05/pngs/7-VD-quadrilaterals.png
venn05/pngs/2vennAB.png
venn05/pngs/4-VD-2symm-curves.png
venn05/pngs/5venn-sep2-dual.png
venn05/pngs/8-ISF-colour-nearsimple.png
venn05/pngs/Euler.fig
venn05/pngs/7-VD-rigid-nondoodleable.png
venn05/pngs/2vennAa.png
venn05/pngs/polyvenn6-diag.png
venn05/pngs/areaprop.png
venn05/pngs/2vennAB.gif
venn05/pngs/EulerBa.png
venn05/pngs/4-VD-2symm.png
venn05/pngs/polyvenn7-diag.png
venn05/pngs/4-ellipses.png
venn05/pngs/S7embed.png
venn05/pngs/EulerAB.png
venn05/pngs/2venn.png
venn05/pngs/4-VDs-simple.png
venn05/pngs/9-VD-3symm-blowups.png
venn05/pngs/7-VD-quads-large.png
venn05/pngs/2vennB.png
venn05/pngs/Eulerab.png
venn05/pngs/min7single.png
venn05/pngs/4-ISF-grunbaum.png
venn05/pngs/colorBetteMin5.png
venn05/pngs/min7.png
venn05/pngs/6-nVD-colour.png
venn05/pngs/5VD-reducible.png
venn05/pngs/2venn.fig
venn05/pngs/5venn-sep3-onlydual.png
venn05/pngs/betteMin5.png
venn05/pngs/survey7quad.png
venn05/pngs/EulerA.png
venn05/pngs/Euler.fig.bak
venn05/pngs/2venn.fig.bak
venn05/pngs/7-VD-polar-rigid.png
venn05/pngs/5venn-sep5-fiveedges.png
venn05/pngs/4-VD-2monochromesymm.png
venn05/pngs/5venn-sep8-simple.png
venn05/pngs/5venn-sep4-oneedgeonefifth.png
venn05/pngs/irreduce.png
venn05/pngs/5venn-sep1.png
venn05/pngs/EulerB.png
venn05/pngs/polyvenn7-curves.png
venn05/pngs/venn_minarea-polyominoes.png
venn05/pngs/2vennA.png
venn05/pngs/2vennab.png
venn05/pngs/8-VD-2symm.png
venn05/pngs/polyvenn6-curves.png
venn05/pngs/9-VD-3symm.png
venn05/pngs/5-VD-symm-rectangles.png
venn05/pngs/5venn-sep7-alldual.png
venn05/pngs/6-ISF-colour.png
venn05/pngs/5venn-sep4-oneedge.png
venn05/pngs/EulerAb.png
venn05/pngs/2vennAabB.png
venn05/pngs/5venn-sep6-fiveedges-dual.png
venn05/nonmonotone.html
venn05/VennNonNecklace.html
venn05/VennGraphEJC.html
venn05/cos.html
venn05/root.html
venn05/VennSymm11EJC.html
