#FIG 3.1
Landscape
Center
Inches
1200 2
1 3 0 3 -1 7 3 0 20 0.0000000 1 0.000 4500 7800 300 300 4500 7800 4500 8100
1 3 0 3 -1 7 3 0 20 0.0000000 1 0.000 2700 6000 300 300 2700 6000 2700 6300
1 3 0 3 -1 7 3 0 20 0.0000000 1 0.000 3600 4200 300 300 3600 4200 3600 4500
1 3 0 3 -1 7 3 0 20 0.0000000 1 0.000 5400 4200 300 300 5400 4200 5400 4500
1 3 0 3 -1 7 3 0 20 0.0000000 1 0.000 900 2400 300 300 900 2400 900 2700
1 3 0 3 -1 7 3 0 20 0.0000000 1 0.000 2700 600 300 300 2700 600 2700 900
1 3 0 3 -1 7 3 0 20 0.0000000 1 0.000 2700 2400 300 300 2700 2400 2700 2700
1 3 0 3 -1 7 3 0 20 0.0000000 1 0.000 900 4200 300 300 900 4200 900 4500
1 3 0 3 -1 7 3 0 20 0.0000000 1 0.000 4500 2400 300 300 4500 2400 4500 2700
1 3 0 3 -1 7 3 0 20 0.0000000 1 0.000 4500 6000 300 300 4500 6000 4500 6300
1 3 0 3 -1 7 3 0 20 0.0000000 1 0.000 7800 6000 300 300 7800 6000 7800 6300
1 3 0 3 -1 7 3 0 20 0.0000000 1 0.000 7800 7800 300 300 7800 7800 7800 8100
1 3 0 3 -1 7 3 0 20 0.0000000 1 0.000 9600 6000 300 300 9600 6000 9600 6300
1 3 0 3 -1 7 3 0 20 0.0000000 1 0.000 8700 4200 300 300 8700 4200 8700 4500
1 3 0 3 -1 7 3 0 20 0.0000000 1 0.000 10500 4200 300 300 10500 4200 10500 4500
1 3 0 3 -1 7 3 0 20 0.0000000 1 0.000 9600 2400 300 300 9600 2400 9600 2700
1 3 0 3 -1 7 3 0 20 0.0000000 1 0.000 12300 4200 300 300 12300 4200 12300 4500
1 3 0 3 -1 7 3 0 20 0.0000000 1 0.000 12300 2400 300 300 12300 2400 12300 2700
1 3 0 3 -1 7 3 0 20 0.0000000 1 0.000 12300 600 300 300 12300 600 12300 900
1 3 0 3 -1 7 3 0 20 0.0000000 1 0.000 14100 2400 300 300 14100 2400 14100 2700
2 1 0 5 -1 7 6 0 -1 0.000 0 0 -1 0 0 2
	 2700 675 2700 2400
2 1 0 5 -1 7 6 0 -1 0.000 0 0 -1 0 0 2
	 900 2475 900 4200
2 1 0 5 -1 7 6 0 -1 0.000 0 0 -1 0 0 4
	 900 2400 2700 600 4500 2400 5400 4200
2 1 0 5 -1 7 6 0 -1 0.000 0 0 -1 0 0 3
	 3600 4200 4500 6000 4500 7800
2 1 0 5 -1 7 6 0 -1 0.000 0 0 -1 0 0 2
	 4500 2400 2700 6000
2 1 0 5 -1 7 6 0 -1 0.000 0 0 -1 0 0 2
	 9600 2400 10500 4200
2 1 0 5 -1 7 6 0 -1 0.000 0 0 -1 0 0 2
	 12300 600 12300 4200
2 1 0 5 -1 7 6 0 -1 0.000 0 0 -1 0 0 2
	 12300 600 14100 2400
2 1 0 5 -1 7 6 0 -1 0.000 0 0 -1 0 0 2
	 8700 4275 9600 6000
2 1 0 5 -1 7 6 0 -1 0.000 0 0 -1 0 0 4
	 12300 600 9600 2400 7800 6000 7800 7800
4 1 0 0 0 18 24 0.0000000 4 255 195 900 2550 2\001
4 1 0 0 0 18 24 0.0000000 4 255 195 2700 750 1\001
4 1 0 0 0 18 24 0.0000000 4 255 195 900 4350 3\001
4 1 0 0 0 18 24 0.0000000 4 255 195 2700 2550 4\001
4 1 0 0 0 18 24 0.0000000 4 255 195 4500 2550 5\001
4 1 0 0 0 18 24 0.0000000 4 255 195 3600 4350 6\001
4 1 0 0 0 18 24 0.0000000 4 255 195 2700 6150 7\001
4 1 0 0 0 18 24 0.0000000 4 255 195 4500 6150 8\001
4 1 0 0 0 18 24 0.0000000 4 255 195 4500 7950 9\001
4 1 0 0 0 18 24 0.0000000 4 255 390 5400 4350 10\001
4 1 0 0 0 18 24 0.0000000 4 255 195 12300 750 1\001
4 1 0 0 0 18 24 0.0000000 4 255 195 9600 2550 2\001
4 1 0 0 0 18 24 0.0000000 4 255 195 7800 6150 4\001
4 1 0 0 0 18 24 0.0000000 4 255 195 7800 7950 5\001
4 1 0 0 0 18 24 0.0000000 4 255 195 9600 6150 6\001
4 1 0 0 0 18 24 0.0000000 4 255 195 10500 4350 7\001
4 1 0 0 0 18 24 0.0000000 4 255 195 12300 2550 8\001
4 1 0 0 0 18 24 0.0000000 4 255 195 12300 4350 9\001
4 1 0 0 0 18 24 0.0000000 4 255 390 14100 2550 10\001
4 0 -1 6 0 18 24 0.0000000 6 285 2895 1200 9000 0 1 2 1 1 2 3 3 4 2\001
4 0 -1 6 0 18 24 0.0000000 6 285 2895 9600 9000 0 1 2 3 4 3 2 1 2 1\001
4 0 -1 6 0 18 24 0.0000000 6 285 2895 1200 10200 0 1 2 1 1 5 6 6 8 5\001
4 0 -1 6 0 18 24 0.0000000 6 315 1095 6000 10200 parent\001
4 0 -1 6 0 18 24 0.0000000 6 255 795 6000 9000 level\001
4 0 -1 6 0 18 24 0.0000000 6 285 2895 9600 10200 0 1 2 3 4 3 2 1 8 1\001
4 1 0 0 0 18 24 0.0000000 4 255 195 8700 4350 3\001
