#FIG 3.1
Landscape
Center
Inches
1200 2
1 3 0 3 -1 7 3 0 20 0.0000000 1 0.000 4500 7800 300 300 4500 7800 4500 8100
1 3 0 3 -1 7 3 0 20 0.0000000 1 0.000 2700 6000 300 300 2700 6000 2700 6300
1 3 0 3 -1 7 3 0 20 0.0000000 1 0.000 3600 4200 300 300 3600 4200 3600 4500
1 3 0 3 -1 7 3 0 20 0.0000000 1 0.000 5400 4200 300 300 5400 4200 5400 4500
1 3 0 3 -1 7 3 0 20 0.0000000 1 0.000 900 2400 300 300 900 2400 900 2700
1 3 0 3 -1 7 3 0 20 0.0000000 1 0.000 2700 600 300 300 2700 600 2700 900
1 3 0 3 -1 7 3 0 20 0.0000000 1 0.000 2700 2400 300 300 2700 2400 2700 2700
1 3 0 3 -1 7 3 0 20 0.0000000 1 0.000 900 4200 300 300 900 4200 900 4500
1 3 0 3 -1 7 3 0 20 0.0000000 1 0.000 4500 2400 300 300 4500 2400 4500 2700
1 3 0 3 -1 7 3 0 20 0.0000000 1 0.000 4500 6000 300 300 4500 6000 4500 6300
2 1 0 5 -1 7 6 0 -1 0.000 0 0 -1 0 0 4
	 900 2400 2700 600 4500 2400 5400 4200
2 1 0 10 14 7 6 0 -1 0.000 0 0 -1 0 0 2
	 3300 600 6900 600
2 1 0 10 14 7 6 0 -1 0.000 0 0 -1 0 0 2
	 600 600 2100 600
2 1 0 10 14 7 6 0 -1 0.000 0 0 -1 0 0 2
	 1500 2400 2100 2400
2 1 0 10 14 7 6 0 -1 0.000 0 0 -1 0 0 2
	 3300 2400 3900 2400
2 1 0 10 14 7 6 0 -1 0.000 0 0 -1 0 0 2
	 5100 2400 6900 2400
2 1 0 10 14 7 6 0 -1 0.000 0 0 -1 0 0 2
	 4200 4200 4800 4200
2 1 0 10 14 7 6 0 -1 0.000 0 0 -1 0 0 2
	 6000 4200 6900 4200
2 1 0 10 14 7 6 0 -1 0.000 0 0 -1 0 0 2
	 600 6000 2100 6000
2 1 0 10 14 7 6 0 -1 0.000 0 0 -1 0 0 2
	 3300 6000 3900 6000
2 1 0 10 14 7 6 0 -1 0.000 0 0 -1 0 0 2
	 5100 6000 6900 6000
2 1 0 10 14 7 6 0 -1 0.000 0 0 -1 0 0 2
	 600 7800 3900 7800
2 1 0 10 14 7 6 0 -1 0.000 0 0 -1 0 0 2
	 5100 7800 6900 7800
2 1 0 5 -1 7 6 0 -1 0.000 0 0 -1 0 0 2
	 2700 675 2700 2400
2 1 0 5 -1 7 6 0 -1 0.000 0 0 -1 0 0 2
	 900 2475 900 4200
2 1 0 10 14 7 6 0 -1 0.000 0 0 -1 0 0 2
	 1500 4200 3000 4200
2 1 0 5 -1 7 6 0 -1 0.000 0 0 -1 0 0 2
	 4500 2400 2700 6000
2 1 0 5 -1 7 6 0 -1 0.000 0 0 -1 0 0 3
	 3600 4200 4500 6000 4500 7800
4 1 0 0 0 18 24 0.0000000 4 255 195 900 2550 2\001
4 1 0 0 0 18 24 0.0000000 4 255 195 2700 750 1\001
4 0 0 0 0 18 24 0.0000000 4 285 1095 7200 750 level 0\001
4 0 0 0 0 18 24 0.0000000 4 285 1095 7200 2550 level 1\001
4 0 0 0 0 18 24 0.0000000 4 285 1095 7200 4350 level 2\001
4 0 0 0 0 18 24 0.0000000 4 285 1095 7200 6150 level 3\001
4 0 0 0 0 18 24 0.0000000 4 285 1095 7200 7875 level 4\001
4 1 0 0 0 18 24 0.0000000 4 255 195 900 4350 3\001
4 1 0 0 0 18 24 0.0000000 4 255 195 2700 2550 4\001
4 1 0 0 0 18 24 0.0000000 4 255 195 4500 2550 5\001
4 1 0 0 0 18 24 0.0000000 4 255 195 3600 4350 6\001
4 1 0 0 0 18 24 0.0000000 4 255 195 2700 6150 7\001
4 1 0 0 0 18 24 0.0000000 4 255 195 4500 6150 8\001
4 1 0 0 0 18 24 0.0000000 4 255 195 4500 7950 9\001
4 1 0 0 0 18 24 0.0000000 4 255 390 5400 4350 10\001
