#FIG 3.1
Portrait
Center
Inches
1200 2
2 3 0 2 -1 14 0 0 20 0.000 0 0 -1 0 0 6
	 2100 2400 2100 2700 3900 2700 3900 2400 2100 2400 2100 2400
2 3 0 2 -1 14 0 0 20 0.000 0 0 -1 0 0 6
	 4200 2400 4200 2700 6000 2700 6000 2400 4200 2400 4200 2400
2 3 0 2 -1 14 0 0 20 0.000 0 0 -1 0 0 6
	 6300 2400 6300 2700 8100 2700 8100 2400 6300 2400 6300 2400
2 3 0 2 -1 14 0 0 20 0.000 0 0 -1 0 0 6
	 8400 2400 8400 2700 10200 2700 10200 2400 8400 2400 8400 2400
2 3 0 2 -1 14 0 0 20 0.000 0 0 -1 0 0 5
	 2100 2400 750 1050 2550 1050 3900 2400 2100 2400
2 3 0 2 -1 14 0 0 20 0.000 0 0 -1 0 0 5
	 4200 2400 2850 1050 4650 1050 6000 2400 4200 2400
2 3 0 2 -1 14 0 0 20 0.000 0 0 -1 0 0 5
	 6300 2400 4950 1050 6750 1050 8100 2400 6300 2400
2 3 0 2 -1 14 0 0 20 0.000 0 0 -1 0 0 5
	 8400 2400 7050 1050 8850 1050 10200 2400 8400 2400
2 3 0 2 -1 14 0 0 20 0.000 0 0 -1 0 0 5
	 750 1050 750 1350 2100 2700 2100 2400 750 1050
2 3 0 2 -1 21 0 0 20 0.000 0 0 -1 0 0 5
	 3750 2250 4050 2250 4200 2400 3900 2400 3750 2250
2 3 0 2 -1 21 0 0 20 0.000 0 0 -1 0 0 5
	 3450 1950 3750 1950 3900 2100 3600 2100 3450 1950
2 3 0 2 -1 21 0 0 20 0.000 0 0 -1 0 0 5
	 3150 1650 3450 1650 3600 1800 3300 1800 3150 1650
2 3 0 2 -1 21 0 0 20 0.000 0 0 -1 0 0 5
	 2850 1350 3150 1350 3300 1500 3000 1500 2850 1350
2 3 0 2 -1 21 0 0 20 0.000 0 0 -1 0 0 5
	 2550 1050 2850 1050 3000 1200 2700 1200 2550 1050
2 3 0 2 -1 21 0 0 20 0.000 0 0 -1 0 0 5
	 2700 1200 3000 1200 3000 1350 2850 1350 2700 1200
2 3 0 2 -1 21 0 0 20 0.000 0 0 -1 0 0 5
	 3300 1500 3300 1650 3150 1650 3000 1500 3300 1500
2 3 0 2 -1 21 0 0 20 0.000 0 0 -1 0 0 5
	 3600 1800 3600 1950 3450 1950 3300 1800 3600 1800
2 3 0 2 -1 21 0 0 20 0.000 0 0 -1 0 0 5
	 3900 2100 3900 2250 3750 2250 3600 2100 3900 2100
2 3 0 2 -1 14 0 0 20 0.000 1 0 -1 0 0 5
	 3600 1800 3600 1950 3750 1950 3600 1800 3600 1800
2 3 0 2 -1 14 0 0 20 0.000 1 0 -1 0 0 5
	 3900 2100 3900 2250 4050 2250 3900 2100 3900 2100
2 3 0 2 -1 14 0 0 20 0.000 1 0 -1 0 0 5
	 3300 1500 3300 1650 3450 1650 3300 1500 3300 1500
2 3 0 2 -1 14 0 0 20 0.000 1 0 -1 0 0 5
	 3000 1200 3000 1350 3150 1350 3000 1200 3000 1200
2 3 0 2 -1 0 0 0 20 0.000 1 0 -1 0 0 7
	 750 1350 750 1650 2100 3000 3900 3000 3900 2700 2100 2700
	 750 1350
2 3 0 2 -1 0 0 0 20 0.000 1 0 -1 0 0 6
	 4200 2700 4200 3000 6000 3000 6000 2700 4200 2700 4200 2700
2 3 0 2 -1 21 0 0 20 0.000 0 0 -1 0 0 6
	 3900 2400 4200 2400 4200 3000 3900 3000 3900 2400 3900 2400
2 3 0 2 -1 21 0 0 20 0.000 0 0 -1 0 0 6
	 6000 2400 6300 2400 6300 3000 6000 3000 6000 2400 6000 2400
2 3 0 2 -1 14 0 0 20 0.000 1 0 -1 0 0 5
	 6000 2100 6000 2250 6150 2250 6000 2100 6000 2100
2 3 0 2 -1 14 0 0 20 0.000 1 0 -1 0 0 5
	 5700 1800 5700 1950 5850 1950 5700 1800 5700 1800
2 3 0 2 -1 14 0 0 20 0.000 1 0 -1 0 0 5
	 5400 1500 5400 1650 5550 1650 5400 1500 5400 1500
2 3 0 2 -1 14 0 0 20 0.000 1 0 -1 0 0 5
	 5100 1200 5100 1350 5250 1350 5100 1200 5100 1200
2 3 0 2 -1 21 0 0 20 0.000 0 0 -1 0 0 5
	 4650 1050 4950 1050 5100 1200 4800 1200 4650 1050
2 3 0 2 -1 21 0 0 20 0.000 0 0 -1 0 0 5
	 4950 1350 5250 1350 5400 1500 5100 1500 4950 1350
2 3 0 2 -1 21 0 0 20 0.000 0 0 -1 0 0 5
	 5250 1650 5550 1650 5700 1800 5400 1800 5250 1650
2 3 0 2 -1 21 0 0 20 0.000 0 0 -1 0 0 5
	 5550 1950 5850 1950 6000 2100 5700 2100 5550 1950
2 3 0 2 -1 21 0 0 20 0.000 0 0 -1 0 0 5
	 5850 2250 6150 2250 6300 2400 6000 2400 5850 2250
2 3 0 2 -1 14 0 0 20 0.000 1 0 -1 0 0 5
	 8100 2100 8100 2250 8250 2250 8100 2100 8100 2100
2 3 0 2 -1 14 0 0 20 0.000 1 0 -1 0 0 5
	 7800 1800 7800 1950 7950 1950 7800 1800 7800 1800
2 3 0 2 -1 14 0 0 20 0.000 1 0 -1 0 0 5
	 7500 1500 7500 1650 7650 1650 7500 1500 7500 1500
2 3 0 2 -1 14 0 0 20 0.000 1 0 -1 0 0 5
	 7200 1200 7200 1350 7350 1350 7200 1200 7200 1200
2 3 0 2 -1 21 0 0 20 0.000 0 0 -1 0 0 5
	 7950 2250 8250 2250 8400 2400 8100 2400 7950 2250
2 3 0 2 -1 21 0 0 20 0.000 0 0 -1 0 0 5
	 7650 1950 7950 1950 8100 2100 7800 2100 7650 1950
2 3 0 2 -1 21 0 0 20 0.000 0 0 -1 0 0 5
	 7350 1650 7650 1650 7800 1800 7500 1800 7350 1650
2 3 0 2 -1 21 0 0 20 0.000 0 0 -1 0 0 5
	 7050 1350 7350 1350 7500 1500 7200 1500 7050 1350
2 3 0 2 -1 21 0 0 20 0.000 0 0 -1 0 0 5
	 6750 1050 7050 1050 7200 1200 6900 1200 6750 1050
2 3 0 2 -1 21 0 0 20 0.000 0 0 -1 0 0 5
	 8100 2100 8100 2250 7950 2250 7800 2100 8100 2100
2 3 0 2 -1 21 0 0 20 0.000 0 0 -1 0 0 5
	 7800 1800 7800 1950 7650 1950 7500 1800 7800 1800
2 3 0 2 -1 21 0 0 20 0.000 0 0 -1 0 0 5
	 7200 1200 7200 1350 7050 1350 6900 1200 7200 1200
2 3 0 2 -1 21 0 0 20 0.000 0 0 -1 0 0 5
	 7500 1500 7500 1650 7350 1650 7200 1500 7500 1500
2 3 0 2 -1 21 0 0 20 0.000 0 0 -1 0 0 5
	 6000 2100 6000 2250 5850 2250 5700 2100 6000 2100
2 3 0 2 -1 21 0 0 20 0.000 0 0 -1 0 0 5
	 5700 1800 5700 1950 5550 1950 5400 1800 5700 1800
2 3 0 2 -1 21 0 0 20 0.000 0 0 -1 0 0 5
	 5400 1500 5400 1650 5250 1650 5100 1500 5400 1500
2 3 0 2 -1 21 0 0 20 0.000 0 0 -1 0 0 5
	 5100 1200 5100 1350 4950 1350 4800 1200 5100 1200
2 3 0 2 -1 0 0 0 20 0.000 1 0 -1 0 0 6
	 6300 2700 6300 3000 8100 3000 8100 2700 6300 2700 6300 2700
2 3 0 2 -1 21 0 0 20 0.000 0 0 -1 0 0 6
	 8100 2400 8400 2400 8400 3000 8100 3000 8100 2400 8100 2400
2 3 0 2 -1 0 0 0 20 0.000 1 0 -1 0 0 6
	 8400 2700 8400 3000 10200 3000 10200 2700 8400 2700 8400 2700
2 1 0 2 -1 0 0 0 20 0.000 1 0 -1 0 1 2
	1 1 2.00 120.00 240.00
	 2700 900 2700 300
2 1 0 2 -1 0 0 0 20 0.000 1 0 -1 0 1 2
	1 1 2.00 120.00 240.00
	 4800 900 4800 300
2 1 0 2 -1 0 0 0 20 0.000 1 0 -1 0 1 2
	1 1 2.00 120.00 240.00
	 6900 900 6900 300
2 1 0 2 -1 0 0 0 20 0.000 1 0 -1 0 0 2
	 2700 300 7200 300
2 1 0 2 -1 0 0 0 20 0.000 1 0 -1 0 1 2
	1 1 2.00 120.00 240.00
	 10350 2550 10650 2550
2 1 0 2 -1 0 0 0 20 0.000 1 0 -1 0 1 2
	1 1 2.00 120.00 240.00
	 10350 2850 10650 2850
4 0 -1 0 0 0 24 0.0000000 4 315 1200 2250 3600 Stamp 1\001
4 0 -1 0 0 0 24 0.0000000 4 315 1200 4350 3600 Stamp 2\001
4 0 -1 0 0 0 24 0.0000000 4 315 1200 6450 3600 Stamp 3\001
4 0 -1 0 0 0 24 0.0000000 4 315 1200 8550 3600 Stamp 4\001
4 0 -1 0 0 0 24 0.0000000 4 315 1755 7350 375 perforations\001
4 0 -1 0 0 0 24 0.0000000 4 315 1815 10800 2625 top of stamp\001
4 0 -1 0 0 0 24 0.0000000 4 315 2385 10800 3000 bottom of stamp\001
