#FIG 3.2
Landscape
Center
Inches
Letter 
100.00
Single
18
1200 2
1 3 0 1 0 23 0 0 20 0.000 1 0.0000 2700 2025 168 168 2700 2025 2775 2175
1 3 0 1 0 23 0 0 20 0.000 1 0.0000 3600 2025 168 168 3600 2025 3675 2175
1 3 0 1 0 23 0 0 20 0.000 1 0.0000 3600 3525 168 168 3600 3525 3675 3675
1 3 0 1 0 13 0 0 20 0.000 1 0.0000 2250 2775 168 168 2250 2775 2418 2775
1 3 0 1 0 13 0 0 20 0.000 1 0.0000 2700 3525 168 168 2700 3525 2868 3525
1 3 0 1 0 13 0 0 20 0.000 1 0.0000 3975 2775 168 168 3975 2775 4143 2775
4 1 0 0 0 0 14 0.0000 4 150 105 2250 2850 0\001
4 1 0 0 0 0 14 0.0000 4 150 105 2700 3600 0\001
4 1 0 0 0 0 14 0.0000 4 150 105 3975 2850 0\001
4 1 0 0 0 0 14 0.0000 4 150 105 3600 2100 1\001
4 1 0 0 0 0 14 0.0000 4 150 105 2700 2100 1\001
4 1 0 0 0 0 14 0.0000 4 150 105 3600 3600 1\001
